%YAML 1.1
%TAG !u! tag:unity3d.com,2011:
--- !u!29 &1
OcclusionCullingSettings:
  m_ObjectHideFlags: 0
  serializedVersion: 2
  m_OcclusionBakeSettings:
    smallestOccluder: 5
    smallestHole: 0.25
    backfaceThreshold: 100
  m_SceneGUID: 00000000000000000000000000000000
  m_OcclusionCullingData: {fileID: 0}
--- !u!104 &2
RenderSettings:
  m_ObjectHideFlags: 0
  serializedVersion: 9
  m_Fog: 0
  m_FogColor: {r: 0.5, g: 0.5, b: 0.5, a: 1}
  m_FogMode: 3
  m_FogDensity: 0.01
  m_LinearFogStart: 0
  m_LinearFogEnd: 300
  m_AmbientSkyColor: {r: 0.212, g: 0.227, b: 0.259, a: 1}
  m_AmbientEquatorColor: {r: 0.114, g: 0.125, b: 0.133, a: 1}
  m_AmbientGroundColor: {r: 0.047, g: 0.043, b: 0.035, a: 1}
  m_AmbientIntensity: 1
  m_AmbientMode: 3
  m_SubtractiveShadowColor: {r: 0.42, g: 0.478, b: 0.627, a: 1}
  m_SkyboxMaterial: {fileID: 0}
  m_HaloStrength: 0.5
  m_FlareStrength: 1
  m_FlareFadeSpeed: 3
  m_HaloTexture: {fileID: 0}
  m_SpotCookie: {fileID: 10001, guid: 0000000000000000e000000000000000, type: 0}
  m_DefaultReflectionMode: 0
  m_DefaultReflectionResolution: 128
  m_ReflectionBounces: 1
  m_ReflectionIntensity: 1
  m_CustomReflection: {fileID: 0}
  m_Sun: {fileID: 0}
  m_IndirectSpecularColor: {r: 0, g: 0, b: 0, a: 1}
  m_UseRadianceAmbientProbe: 0
--- !u!157 &3
LightmapSettings:
  m_ObjectHideFlags: 0
  serializedVersion: 12
  m_GIWorkflowMode: 1
  m_GISettings:
    serializedVersion: 2
    m_BounceScale: 1
    m_IndirectOutputScale: 1
    m_AlbedoBoost: 1
    m_EnvironmentLightingMode: 0
    m_EnableBakedLightmaps: 0
    m_EnableRealtimeLightmaps: 0
  m_LightmapEditorSettings:
    serializedVersion: 12
    m_Resolution: 2
    m_BakeResolution: 40
    m_AtlasSize: 1024
    m_AO: 0
    m_AOMaxDistance: 1
    m_CompAOExponent: 1
    m_CompAOExponentDirect: 0
    m_ExtractAmbientOcclusion: 0
    m_Padding: 2
    m_LightmapParameters: {fileID: 0}
    m_LightmapsBakeMode: 1
    m_TextureCompression: 1
    m_FinalGather: 0
    m_FinalGatherFiltering: 1
    m_FinalGatherRayCount: 256
    m_ReflectionCompression: 2
    m_MixedBakeMode: 2
    m_BakeBackend: 0
    m_PVRSampling: 1
    m_PVRDirectSampleCount: 32
    m_PVRSampleCount: 500
    m_PVRBounces: 2
    m_PVREnvironmentSampleCount: 500
    m_PVREnvironmentReferencePointCount: 2048
    m_PVRFilteringMode: 2
    m_PVRDenoiserTypeDirect: 0
    m_PVRDenoiserTypeIndirect: 0
    m_PVRDenoiserTypeAO: 0
    m_PVRFilterTypeDirect: 0
    m_PVRFilterTypeIndirect: 0
    m_PVRFilterTypeAO: 0
    m_PVREnvironmentMIS: 0
    m_PVRCulling: 1
    m_PVRFilteringGaussRadiusDirect: 1
    m_PVRFilteringGaussRadiusIndirect: 5
    m_PVRFilteringGaussRadiusAO: 2
    m_PVRFilteringAtrousPositionSigmaDirect: 0.5
    m_PVRFilteringAtrousPositionSigmaIndirect: 2
    m_PVRFilteringAtrousPositionSigmaAO: 1
    m_ExportTrainingData: 0
    m_TrainingDataDestination: TrainingData
    m_LightProbeSampleCountMultiplier: 4
  m_LightingDataAsset: {fileID: 0}
  m_LightingSettings: {fileID: 0}
--- !u!196 &4
NavMeshSettings:
  serializedVersion: 2
  m_ObjectHideFlags: 0
  m_BuildSettings:
    serializedVersion: 2
    agentTypeID: 0
    agentRadius: 0.5
    agentHeight: 2
    agentSlope: 45
    agentClimb: 0.4
    ledgeDropHeight: 0
    maxJumpAcrossDistance: 0
    minRegionArea: 2
    manualCellSize: 0
    cellSize: 0.16666667
    manualTileSize: 0
    tileSize: 256
    accuratePlacement: 0
    maxJobWorkers: 0
    preserveTilesOutsideBounds: 0
    debug:
      m_Flags: 0
  m_NavMeshData: {fileID: 0}
--- !u!1 &147387652
GameObject:
  m_ObjectHideFlags: 0
  m_CorrespondingSourceObject: {fileID: 0}
  m_PrefabInstance: {fileID: 0}
  m_PrefabAsset: {fileID: 0}
  serializedVersion: 6
  m_Component:
  - component: {fileID: 147387655}
  - component: {fileID: 147387654}
  - component: {fileID: 147387653}
  m_Layer: 0
  m_Name: EventSystem
  m_TagString: Untagged
  m_Icon: {fileID: 0}
  m_NavMeshLayer: 0
  m_StaticEditorFlags: 0
  m_IsActive: 1
--- !u!114 &147387653
MonoBehaviour:
  m_ObjectHideFlags: 0
  m_CorrespondingSourceObject: {fileID: 0}
  m_PrefabInstance: {fileID: 0}
  m_PrefabAsset: {fileID: 0}
  m_GameObject: {fileID: 147387652}
  m_Enabled: 1
  m_EditorHideFlags: 0
  m_Script: {fileID: 11500000, guid: 4f231c4fb786f3946a6b90b886c48677, type: 3}
  m_Name: 
  m_EditorClassIdentifier: 
  m_HorizontalAxis: Horizontal
  m_VerticalAxis: Vertical
  m_SubmitButton: Submit
  m_CancelButton: Cancel
  m_InputActionsPerSecond: 10
  m_RepeatDelay: 0.5
  m_ForceModuleActive: 0
--- !u!114 &147387654
MonoBehaviour:
  m_ObjectHideFlags: 0
  m_CorrespondingSourceObject: {fileID: 0}
  m_PrefabInstance: {fileID: 0}
  m_PrefabAsset: {fileID: 0}
  m_GameObject: {fileID: 147387652}
  m_Enabled: 1
  m_EditorHideFlags: 0
  m_Script: {fileID: 11500000, guid: 76c392e42b5098c458856cdf6ecaaaa1, type: 3}
  m_Name: 
  m_EditorClassIdentifier: 
  m_FirstSelected: {fileID: 0}
  m_sendNavigationEvents: 1
  m_DragThreshold: 10
--- !u!4 &147387655
Transform:
  m_ObjectHideFlags: 0
  m_CorrespondingSourceObject: {fileID: 0}
  m_PrefabInstance: {fileID: 0}
  m_PrefabAsset: {fileID: 0}
  m_GameObject: {fileID: 147387652}
  m_LocalRotation: {x: 0, y: 0, z: 0, w: 1}
  m_LocalPosition: {x: 0, y: 0, z: 0}
  m_LocalScale: {x: 1, y: 1, z: 1}
  m_Children: []
  m_Father: {fileID: 0}
  m_RootOrder: 2
  m_LocalEulerAnglesHint: {x: 0, y: 0, z: 0}
--- !u!1001 &345103687
PrefabInstance:
  m_ObjectHideFlags: 0
  serializedVersion: 2
  m_Modification:
    m_TransformParent: {fileID: 0}
    m_Modifications:
    - target: {fileID: 5303611844168530680, guid: 5117003844509724e90b7f7cf2d65d0b, type: 3}
      propertyPath: m_RootOrder
      value: 3
      objectReference: {fileID: 0}
    - target: {fileID: 5303611844168530680, guid: 5117003844509724e90b7f7cf2d65d0b, type: 3}
      propertyPath: m_LocalPosition.x
      value: -0.15
      objectReference: {fileID: 0}
    - target: {fileID: 5303611844168530680, guid: 5117003844509724e90b7f7cf2d65d0b, type: 3}
      propertyPath: m_LocalPosition.y
      value: -5.37
      objectReference: {fileID: 0}
    - target: {fileID: 5303611844168530680, guid: 5117003844509724e90b7f7cf2d65d0b, type: 3}
      propertyPath: m_LocalPosition.z
      value: 0
      objectReference: {fileID: 0}
    - target: {fileID: 5303611844168530680, guid: 5117003844509724e90b7f7cf2d65d0b, type: 3}
      propertyPath: m_LocalRotation.w
      value: 1
      objectReference: {fileID: 0}
    - target: {fileID: 5303611844168530680, guid: 5117003844509724e90b7f7cf2d65d0b, type: 3}
      propertyPath: m_LocalRotation.x
      value: -0
      objectReference: {fileID: 0}
    - target: {fileID: 5303611844168530680, guid: 5117003844509724e90b7f7cf2d65d0b, type: 3}
      propertyPath: m_LocalRotation.y
      value: -0
      objectReference: {fileID: 0}
    - target: {fileID: 5303611844168530680, guid: 5117003844509724e90b7f7cf2d65d0b, type: 3}
      propertyPath: m_LocalRotation.z
      value: -0
      objectReference: {fileID: 0}
    - target: {fileID: 5303611844168530680, guid: 5117003844509724e90b7f7cf2d65d0b, type: 3}
      propertyPath: m_LocalEulerAnglesHint.x
      value: 0
      objectReference: {fileID: 0}
    - target: {fileID: 5303611844168530680, guid: 5117003844509724e90b7f7cf2d65d0b, type: 3}
      propertyPath: m_LocalEulerAnglesHint.y
      value: 0
      objectReference: {fileID: 0}
    - target: {fileID: 5303611844168530680, guid: 5117003844509724e90b7f7cf2d65d0b, type: 3}
      propertyPath: m_LocalEulerAnglesHint.z
      value: 0
      objectReference: {fileID: 0}
    - target: {fileID: 5303611844168530685, guid: 5117003844509724e90b7f7cf2d65d0b, type: 3}
      propertyPath: m_Name
      value: Player
      objectReference: {fileID: 0}
    m_RemovedComponents: []
  m_SourcePrefab: {fileID: 100100000, guid: 5117003844509724e90b7f7cf2d65d0b, type: 3}
--- !u!1001 &652071180
PrefabInstance:
  m_ObjectHideFlags: 0
  serializedVersion: 2
  m_Modification:
    m_TransformParent: {fileID: 0}
    m_Modifications:
    - target: {fileID: 1028055169160019889, guid: be4de1353b207d341b54f7b8ba3b7210, type: 3}
      propertyPath: m_RootOrder
      value: 9
      objectReference: {fileID: 0}
    - target: {fileID: 1028055169160019889, guid: be4de1353b207d341b54f7b8ba3b7210, type: 3}
      propertyPath: m_LocalPosition.x
      value: 1.73
      objectReference: {fileID: 0}
    - target: {fileID: 1028055169160019889, guid: be4de1353b207d341b54f7b8ba3b7210, type: 3}
      propertyPath: m_LocalPosition.y
      value: -1.22
      objectReference: {fileID: 0}
    - target: {fileID: 1028055169160019889, guid: be4de1353b207d341b54f7b8ba3b7210, type: 3}
      propertyPath: m_LocalPosition.z
      value: 0
      objectReference: {fileID: 0}
    - target: {fileID: 1028055169160019889, guid: be4de1353b207d341b54f7b8ba3b7210, type: 3}
      propertyPath: m_LocalRotation.w
      value: 1
      objectReference: {fileID: 0}
    - target: {fileID: 1028055169160019889, guid: be4de1353b207d341b54f7b8ba3b7210, type: 3}
      propertyPath: m_LocalRotation.x
      value: -0
      objectReference: {fileID: 0}
    - target: {fileID: 1028055169160019889, guid: be4de1353b207d341b54f7b8ba3b7210, type: 3}
      propertyPath: m_LocalRotation.y
      value: -0
      objectReference: {fileID: 0}
    - target: {fileID: 1028055169160019889, guid: be4de1353b207d341b54f7b8ba3b7210, type: 3}
      propertyPath: m_LocalRotation.z
      value: -0
      objectReference: {fileID: 0}
    - target: {fileID: 1028055169160019889, guid: be4de1353b207d341b54f7b8ba3b7210, type: 3}
      propertyPath: m_LocalEulerAnglesHint.x
      value: 0
      objectReference: {fileID: 0}
    - target: {fileID: 1028055169160019889, guid: be4de1353b207d341b54f7b8ba3b7210, type: 3}
      propertyPath: m_LocalEulerAnglesHint.y
      value: 0
      objectReference: {fileID: 0}
    - target: {fileID: 1028055169160019889, guid: be4de1353b207d341b54f7b8ba3b7210, type: 3}
      propertyPath: m_LocalEulerAnglesHint.z
      value: 0
      objectReference: {fileID: 0}
    - target: {fileID: 1028055169160019903, guid: be4de1353b207d341b54f7b8ba3b7210, type: 3}
      propertyPath: m_Name
      value: Enemy 1
      objectReference: {fileID: 0}
    - target: {fileID: 2830908216387476248, guid: be4de1353b207d341b54f7b8ba3b7210, type: 3}
      propertyPath: m_Enabled
      value: 0
      objectReference: {fileID: 0}
    m_RemovedComponents: []
  m_SourcePrefab: {fileID: 100100000, guid: be4de1353b207d341b54f7b8ba3b7210, type: 3}
--- !u!1001 &769557143
PrefabInstance:
  m_ObjectHideFlags: 0
  serializedVersion: 2
  m_Modification:
    m_TransformParent: {fileID: 0}
    m_Modifications:
    - target: {fileID: 6252988352809832162, guid: de7555f7fb6eb3845b71a2bf8e214b24, type: 3}
      propertyPath: m_Name
      value: Canvas
      objectReference: {fileID: 0}
    - target: {fileID: 6252988352809832166, guid: de7555f7fb6eb3845b71a2bf8e214b24, type: 3}
      propertyPath: m_Pivot.x
      value: 0
      objectReference: {fileID: 0}
    - target: {fileID: 6252988352809832166, guid: de7555f7fb6eb3845b71a2bf8e214b24, type: 3}
      propertyPath: m_Pivot.y
      value: 0
      objectReference: {fileID: 0}
    - target: {fileID: 6252988352809832166, guid: de7555f7fb6eb3845b71a2bf8e214b24, type: 3}
      propertyPath: m_RootOrder
      value: 1
      objectReference: {fileID: 0}
    - target: {fileID: 6252988352809832166, guid: de7555f7fb6eb3845b71a2bf8e214b24, type: 3}
      propertyPath: m_AnchorMax.x
      value: 0
      objectReference: {fileID: 0}
    - target: {fileID: 6252988352809832166, guid: de7555f7fb6eb3845b71a2bf8e214b24, type: 3}
      propertyPath: m_AnchorMax.y
      value: 0
      objectReference: {fileID: 0}
    - target: {fileID: 6252988352809832166, guid: de7555f7fb6eb3845b71a2bf8e214b24, type: 3}
      propertyPath: m_AnchorMin.x
      value: 0
      objectReference: {fileID: 0}
    - target: {fileID: 6252988352809832166, guid: de7555f7fb6eb3845b71a2bf8e214b24, type: 3}
      propertyPath: m_AnchorMin.y
      value: 0
      objectReference: {fileID: 0}
    - target: {fileID: 6252988352809832166, guid: de7555f7fb6eb3845b71a2bf8e214b24, type: 3}
      propertyPath: m_SizeDelta.x
      value: 0
      objectReference: {fileID: 0}
    - target: {fileID: 6252988352809832166, guid: de7555f7fb6eb3845b71a2bf8e214b24, type: 3}
      propertyPath: m_SizeDelta.y
      value: 0
      objectReference: {fileID: 0}
    - target: {fileID: 6252988352809832166, guid: de7555f7fb6eb3845b71a2bf8e214b24, type: 3}
      propertyPath: m_LocalPosition.x
      value: 0
      objectReference: {fileID: 0}
    - target: {fileID: 6252988352809832166, guid: de7555f7fb6eb3845b71a2bf8e214b24, type: 3}
      propertyPath: m_LocalPosition.y
      value: 0
      objectReference: {fileID: 0}
    - target: {fileID: 6252988352809832166, guid: de7555f7fb6eb3845b71a2bf8e214b24, type: 3}
      propertyPath: m_LocalPosition.z
      value: 0
      objectReference: {fileID: 0}
    - target: {fileID: 6252988352809832166, guid: de7555f7fb6eb3845b71a2bf8e214b24, type: 3}
      propertyPath: m_LocalRotation.w
      value: 1
      objectReference: {fileID: 0}
    - target: {fileID: 6252988352809832166, guid: de7555f7fb6eb3845b71a2bf8e214b24, type: 3}
      propertyPath: m_LocalRotation.x
      value: 0
      objectReference: {fileID: 0}
    - target: {fileID: 6252988352809832166, guid: de7555f7fb6eb3845b71a2bf8e214b24, type: 3}
      propertyPath: m_LocalRotation.y
      value: 0
      objectReference: {fileID: 0}
    - target: {fileID: 6252988352809832166, guid: de7555f7fb6eb3845b71a2bf8e214b24, type: 3}
      propertyPath: m_LocalRotation.z
      value: 0
      objectReference: {fileID: 0}
    - target: {fileID: 6252988352809832166, guid: de7555f7fb6eb3845b71a2bf8e214b24, type: 3}
      propertyPath: m_AnchoredPosition.x
      value: 0
      objectReference: {fileID: 0}
    - target: {fileID: 6252988352809832166, guid: de7555f7fb6eb3845b71a2bf8e214b24, type: 3}
      propertyPath: m_AnchoredPosition.y
      value: 0
      objectReference: {fileID: 0}
    - target: {fileID: 6252988352809832166, guid: de7555f7fb6eb3845b71a2bf8e214b24, type: 3}
      propertyPath: m_LocalEulerAnglesHint.x
      value: 0
      objectReference: {fileID: 0}
    - target: {fileID: 6252988352809832166, guid: de7555f7fb6eb3845b71a2bf8e214b24, type: 3}
      propertyPath: m_LocalEulerAnglesHint.y
      value: 0
      objectReference: {fileID: 0}
    - target: {fileID: 6252988352809832166, guid: de7555f7fb6eb3845b71a2bf8e214b24, type: 3}
      propertyPath: m_LocalEulerAnglesHint.z
      value: 0
      objectReference: {fileID: 0}
    m_RemovedComponents: []
  m_SourcePrefab: {fileID: 100100000, guid: de7555f7fb6eb3845b71a2bf8e214b24, type: 3}
--- !u!1001 &1316755470
PrefabInstance:
  m_ObjectHideFlags: 0
  serializedVersion: 2
  m_Modification:
    m_TransformParent: {fileID: 0}
    m_Modifications:
    - target: {fileID: 5790649339800341517, guid: 528514ca57a068641a1ecddca88ce2e5, type: 3}
      propertyPath: m_Name
      value: Main Camera
      objectReference: {fileID: 0}
    - target: {fileID: 5790649339800341745, guid: 528514ca57a068641a1ecddca88ce2e5, type: 3}
      propertyPath: m_RootOrder
      value: 0
      objectReference: {fileID: 0}
    - target: {fileID: 5790649339800341745, guid: 528514ca57a068641a1ecddca88ce2e5, type: 3}
      propertyPath: m_LocalPosition.x
      value: 0
      objectReference: {fileID: 0}
    - target: {fileID: 5790649339800341745, guid: 528514ca57a068641a1ecddca88ce2e5, type: 3}
      propertyPath: m_LocalPosition.y
      value: 0
      objectReference: {fileID: 0}
    - target: {fileID: 5790649339800341745, guid: 528514ca57a068641a1ecddca88ce2e5, type: 3}
      propertyPath: m_LocalPosition.z
      value: -10
      objectReference: {fileID: 0}
    - target: {fileID: 5790649339800341745, guid: 528514ca57a068641a1ecddca88ce2e5, type: 3}
      propertyPath: m_LocalRotation.w
      value: 1
      objectReference: {fileID: 0}
    - target: {fileID: 5790649339800341745, guid: 528514ca57a068641a1ecddca88ce2e5, type: 3}
      propertyPath: m_LocalRotation.x
      value: 0
      objectReference: {fileID: 0}
    - target: {fileID: 5790649339800341745, guid: 528514ca57a068641a1ecddca88ce2e5, type: 3}
      propertyPath: m_LocalRotation.y
      value: 0
      objectReference: {fileID: 0}
    - target: {fileID: 5790649339800341745, guid: 528514ca57a068641a1ecddca88ce2e5, type: 3}
      propertyPath: m_LocalRotation.z
      value: 0
      objectReference: {fileID: 0}
    - target: {fileID: 5790649339800341745, guid: 528514ca57a068641a1ecddca88ce2e5, type: 3}
      propertyPath: m_LocalEulerAnglesHint.x
      value: 0
      objectReference: {fileID: 0}
    - target: {fileID: 5790649339800341745, guid: 528514ca57a068641a1ecddca88ce2e5, type: 3}
      propertyPath: m_LocalEulerAnglesHint.y
      value: 0
      objectReference: {fileID: 0}
    - target: {fileID: 5790649339800341745, guid: 528514ca57a068641a1ecddca88ce2e5, type: 3}
      propertyPath: m_LocalEulerAnglesHint.z
      value: 0
      objectReference: {fileID: 0}
    m_RemovedComponents: []
  m_SourcePrefab: {fileID: 100100000, guid: 528514ca57a068641a1ecddca88ce2e5, type: 3}
--- !u!1001 &753234134891360427
PrefabInstance:
  m_ObjectHideFlags: 0
  serializedVersion: 2
  m_Modification:
    m_TransformParent: {fileID: 0}
    m_Modifications:
    - target: {fileID: 753234134669655048, guid: 467ddbabe7e304644ae82b780dda57cc, type: 3}
      propertyPath: m_RootOrder
      value: 4
      objectReference: {fileID: 0}
    - target: {fileID: 753234134669655048, guid: 467ddbabe7e304644ae82b780dda57cc, type: 3}
      propertyPath: m_LocalPosition.x
      value: 0
      objectReference: {fileID: 0}
    - target: {fileID: 753234134669655048, guid: 467ddbabe7e304644ae82b780dda57cc, type: 3}
      propertyPath: m_LocalPosition.y
      value: 0
      objectReference: {fileID: 0}
    - target: {fileID: 753234134669655048, guid: 467ddbabe7e304644ae82b780dda57cc, type: 3}
      propertyPath: m_LocalPosition.z
      value: 0
      objectReference: {fileID: 0}
    - target: {fileID: 753234134669655048, guid: 467ddbabe7e304644ae82b780dda57cc, type: 3}
      propertyPath: m_LocalRotation.w
      value: 1
      objectReference: {fileID: 0}
    - target: {fileID: 753234134669655048, guid: 467ddbabe7e304644ae82b780dda57cc, type: 3}
      propertyPath: m_LocalRotation.x
      value: 0
      objectReference: {fileID: 0}
    - target: {fileID: 753234134669655048, guid: 467ddbabe7e304644ae82b780dda57cc, type: 3}
      propertyPath: m_LocalRotation.y
      value: 0
      objectReference: {fileID: 0}
    - target: {fileID: 753234134669655048, guid: 467ddbabe7e304644ae82b780dda57cc, type: 3}
      propertyPath: m_LocalRotation.z
      value: 0
      objectReference: {fileID: 0}
    - target: {fileID: 753234134669655048, guid: 467ddbabe7e304644ae82b780dda57cc, type: 3}
      propertyPath: m_LocalEulerAnglesHint.x
      value: 0
      objectReference: {fileID: 0}
    - target: {fileID: 753234134669655048, guid: 467ddbabe7e304644ae82b780dda57cc, type: 3}
      propertyPath: m_LocalEulerAnglesHint.y
      value: 0
      objectReference: {fileID: 0}
    - target: {fileID: 753234134669655048, guid: 467ddbabe7e304644ae82b780dda57cc, type: 3}
      propertyPath: m_LocalEulerAnglesHint.z
      value: 0
      objectReference: {fileID: 0}
    - target: {fileID: 753234134669655050, guid: 467ddbabe7e304644ae82b780dda57cc, type: 3}
      propertyPath: m_Name
      value: ShredderTop
      objectReference: {fileID: 0}
    m_RemovedComponents: []
  m_SourcePrefab: {fileID: 100100000, guid: 467ddbabe7e304644ae82b780dda57cc, type: 3}
--- !u!1001 &2479670430426422125
PrefabInstance:
  m_ObjectHideFlags: 0
  serializedVersion: 2
  m_Modification:
    m_TransformParent: {fileID: 0}
    m_Modifications:
    - target: {fileID: 2479670430216521677, guid: bcac8e7f8fcc2bf478f5846fa6477247, type: 3}
      propertyPath: m_Name
      value: Background
      objectReference: {fileID: 0}
    - target: {fileID: 2479670430216521678, guid: bcac8e7f8fcc2bf478f5846fa6477247, type: 3}
      propertyPath: m_RootOrder
      value: 10
      objectReference: {fileID: 0}
    - target: {fileID: 2479670430216521678, guid: bcac8e7f8fcc2bf478f5846fa6477247, type: 3}
      propertyPath: m_LocalPosition.x
      value: 0.033
      objectReference: {fileID: 0}
    - target: {fileID: 2479670430216521678, guid: bcac8e7f8fcc2bf478f5846fa6477247, type: 3}
      propertyPath: m_LocalPosition.y
      value: -0
      objectReference: {fileID: 0}
    - target: {fileID: 2479670430216521678, guid: bcac8e7f8fcc2bf478f5846fa6477247, type: 3}
      propertyPath: m_LocalPosition.z
      value: 10
      objectReference: {fileID: 0}
    - target: {fileID: 2479670430216521678, guid: bcac8e7f8fcc2bf478f5846fa6477247, type: 3}
      propertyPath: m_LocalRotation.w
      value: 1
      objectReference: {fileID: 0}
    - target: {fileID: 2479670430216521678, guid: bcac8e7f8fcc2bf478f5846fa6477247, type: 3}
      propertyPath: m_LocalRotation.x
      value: 0
      objectReference: {fileID: 0}
    - target: {fileID: 2479670430216521678, guid: bcac8e7f8fcc2bf478f5846fa6477247, type: 3}
      propertyPath: m_LocalRotation.y
      value: 0
      objectReference: {fileID: 0}
    - target: {fileID: 2479670430216521678, guid: bcac8e7f8fcc2bf478f5846fa6477247, type: 3}
      propertyPath: m_LocalRotation.z
      value: 0
      objectReference: {fileID: 0}
    - target: {fileID: 2479670430216521678, guid: bcac8e7f8fcc2bf478f5846fa6477247, type: 3}
      propertyPath: m_LocalEulerAnglesHint.x
      value: 0
      objectReference: {fileID: 0}
    - target: {fileID: 2479670430216521678, guid: bcac8e7f8fcc2bf478f5846fa6477247, type: 3}
      propertyPath: m_LocalEulerAnglesHint.y
      value: 0
      objectReference: {fileID: 0}
    - target: {fileID: 2479670430216521678, guid: bcac8e7f8fcc2bf478f5846fa6477247, type: 3}
      propertyPath: m_LocalEulerAnglesHint.z
      value: 0
      objectReference: {fileID: 0}
    m_RemovedComponents: []
  m_SourcePrefab: {fileID: 100100000, guid: bcac8e7f8fcc2bf478f5846fa6477247, type: 3}
--- !u!1001 &3055000833155664146
PrefabInstance:
  m_ObjectHideFlags: 0
  serializedVersion: 2
  m_Modification:
    m_TransformParent: {fileID: 0}
    m_Modifications:
    - target: {fileID: 3960089053875238686, guid: 82552c0fa965ebf4f8d030339b42f7ec, type: 3}
      propertyPath: m_RootOrder
      value: 13
      objectReference: {fileID: 0}
    - target: {fileID: 3960089053875238686, guid: 82552c0fa965ebf4f8d030339b42f7ec, type: 3}
      propertyPath: m_LocalPosition.x
      value: 0
      objectReference: {fileID: 0}
    - target: {fileID: 3960089053875238686, guid: 82552c0fa965ebf4f8d030339b42f7ec, type: 3}
      propertyPath: m_LocalPosition.y
      value: 0
      objectReference: {fileID: 0}
    - target: {fileID: 3960089053875238686, guid: 82552c0fa965ebf4f8d030339b42f7ec, type: 3}
      propertyPath: m_LocalPosition.z
      value: 0
      objectReference: {fileID: 0}
    - target: {fileID: 3960089053875238686, guid: 82552c0fa965ebf4f8d030339b42f7ec, type: 3}
      propertyPath: m_LocalRotation.w
      value: 1
      objectReference: {fileID: 0}
    - target: {fileID: 3960089053875238686, guid: 82552c0fa965ebf4f8d030339b42f7ec, type: 3}
      propertyPath: m_LocalRotation.x
      value: 0
      objectReference: {fileID: 0}
    - target: {fileID: 3960089053875238686, guid: 82552c0fa965ebf4f8d030339b42f7ec, type: 3}
      propertyPath: m_LocalRotation.y
      value: 0
      objectReference: {fileID: 0}
    - target: {fileID: 3960089053875238686, guid: 82552c0fa965ebf4f8d030339b42f7ec, type: 3}
      propertyPath: m_LocalRotation.z
      value: 0
      objectReference: {fileID: 0}
    - target: {fileID: 3960089053875238686, guid: 82552c0fa965ebf4f8d030339b42f7ec, type: 3}
      propertyPath: m_LocalEulerAnglesHint.x
      value: 0
      objectReference: {fileID: 0}
    - target: {fileID: 3960089053875238686, guid: 82552c0fa965ebf4f8d030339b42f7ec, type: 3}
      propertyPath: m_LocalEulerAnglesHint.y
      value: 0
      objectReference: {fileID: 0}
    - target: {fileID: 3960089053875238686, guid: 82552c0fa965ebf4f8d030339b42f7ec, type: 3}
      propertyPath: m_LocalEulerAnglesHint.z
      value: 0
      objectReference: {fileID: 0}
    - target: {fileID: 5765580728382862021, guid: 82552c0fa965ebf4f8d030339b42f7ec, type: 3}
      propertyPath: m_Name
      value: Level
      objectReference: {fileID: 0}
    m_RemovedComponents: []
  m_SourcePrefab: {fileID: 100100000, guid: 82552c0fa965ebf4f8d030339b42f7ec, type: 3}
--- !u!1001 &3867777560788405620
PrefabInstance:
  m_ObjectHideFlags: 0
  serializedVersion: 2
  m_Modification:
    m_TransformParent: {fileID: 0}
    m_Modifications:
    - target: {fileID: 3331031431663454032, guid: fd0e4747dc5edc14ab6fe7d864cc52b7, type: 3}
      propertyPath: m_Name
      value: Path1
      objectReference: {fileID: 0}
    - target: {fileID: 6227129428601970436, guid: fd0e4747dc5edc14ab6fe7d864cc52b7, type: 3}
      propertyPath: m_RootOrder
      value: 7
      objectReference: {fileID: 0}
    - target: {fileID: 6227129428601970436, guid: fd0e4747dc5edc14ab6fe7d864cc52b7, type: 3}
      propertyPath: m_LocalPosition.x
      value: 0
      objectReference: {fileID: 0}
    - target: {fileID: 6227129428601970436, guid: fd0e4747dc5edc14ab6fe7d864cc52b7, type: 3}
      propertyPath: m_LocalPosition.y
      value: 0
      objectReference: {fileID: 0}
    - target: {fileID: 6227129428601970436, guid: fd0e4747dc5edc14ab6fe7d864cc52b7, type: 3}
      propertyPath: m_LocalPosition.z
      value: 0
      objectReference: {fileID: 0}
    - target: {fileID: 6227129428601970436, guid: fd0e4747dc5edc14ab6fe7d864cc52b7, type: 3}
      propertyPath: m_LocalRotation.w
      value: 1
      objectReference: {fileID: 0}
    - target: {fileID: 6227129428601970436, guid: fd0e4747dc5edc14ab6fe7d864cc52b7, type: 3}
      propertyPath: m_LocalRotation.x
      value: 0
      objectReference: {fileID: 0}
    - target: {fileID: 6227129428601970436, guid: fd0e4747dc5edc14ab6fe7d864cc52b7, type: 3}
      propertyPath: m_LocalRotation.y
      value: 0
      objectReference: {fileID: 0}
    - target: {fileID: 6227129428601970436, guid: fd0e4747dc5edc14ab6fe7d864cc52b7, type: 3}
      propertyPath: m_LocalRotation.z
      value: 0
      objectReference: {fileID: 0}
    - target: {fileID: 6227129428601970436, guid: fd0e4747dc5edc14ab6fe7d864cc52b7, type: 3}
      propertyPath: m_LocalEulerAnglesHint.x
      value: 0
      objectReference: {fileID: 0}
    - target: {fileID: 6227129428601970436, guid: fd0e4747dc5edc14ab6fe7d864cc52b7, type: 3}
      propertyPath: m_LocalEulerAnglesHint.y
      value: 0
      objectReference: {fileID: 0}
    - target: {fileID: 6227129428601970436, guid: fd0e4747dc5edc14ab6fe7d864cc52b7, type: 3}
      propertyPath: m_LocalEulerAnglesHint.z
      value: 0
      objectReference: {fileID: 0}
    m_RemovedComponents: []
  m_SourcePrefab: {fileID: 100100000, guid: fd0e4747dc5edc14ab6fe7d864cc52b7, type: 3}
--- !u!1001 &6174771241854320785
PrefabInstance:
  m_ObjectHideFlags: 0
  serializedVersion: 2
  m_Modification:
    m_TransformParent: {fileID: 0}
    m_Modifications:
    - target: {fileID: 7546378375806593404, guid: 4c0788ec63d31cd43a648f98de2db7eb, type: 3}
      propertyPath: m_Name
      value: ShredderBottom
      objectReference: {fileID: 0}
    - target: {fileID: 7546378375806593406, guid: 4c0788ec63d31cd43a648f98de2db7eb, type: 3}
      propertyPath: m_RootOrder
      value: 5
      objectReference: {fileID: 0}
    - target: {fileID: 7546378375806593406, guid: 4c0788ec63d31cd43a648f98de2db7eb, type: 3}
      propertyPath: m_LocalPosition.x
      value: 0
      objectReference: {fileID: 0}
    - target: {fileID: 7546378375806593406, guid: 4c0788ec63d31cd43a648f98de2db7eb, type: 3}
      propertyPath: m_LocalPosition.y
      value: -21
      objectReference: {fileID: 0}
    - target: {fileID: 7546378375806593406, guid: 4c0788ec63d31cd43a648f98de2db7eb, type: 3}
      propertyPath: m_LocalPosition.z
      value: 0
      objectReference: {fileID: 0}
    - target: {fileID: 7546378375806593406, guid: 4c0788ec63d31cd43a648f98de2db7eb, type: 3}
      propertyPath: m_LocalRotation.w
      value: 1
      objectReference: {fileID: 0}
    - target: {fileID: 7546378375806593406, guid: 4c0788ec63d31cd43a648f98de2db7eb, type: 3}
      propertyPath: m_LocalRotation.x
      value: 0
      objectReference: {fileID: 0}
    - target: {fileID: 7546378375806593406, guid: 4c0788ec63d31cd43a648f98de2db7eb, type: 3}
      propertyPath: m_LocalRotation.y
      value: 0
      objectReference: {fileID: 0}
    - target: {fileID: 7546378375806593406, guid: 4c0788ec63d31cd43a648f98de2db7eb, type: 3}
      propertyPath: m_LocalRotation.z
      value: 0
      objectReference: {fileID: 0}
    - target: {fileID: 7546378375806593406, guid: 4c0788ec63d31cd43a648f98de2db7eb, type: 3}
      propertyPath: m_LocalEulerAnglesHint.x
      value: 0
      objectReference: {fileID: 0}
    - target: {fileID: 7546378375806593406, guid: 4c0788ec63d31cd43a648f98de2db7eb, type: 3}
      propertyPath: m_LocalEulerAnglesHint.y
      value: 0
      objectReference: {fileID: 0}
    - target: {fileID: 7546378375806593406, guid: 4c0788ec63d31cd43a648f98de2db7eb, type: 3}
      propertyPath: m_LocalEulerAnglesHint.z
      value: 0
      objectReference: {fileID: 0}
    m_RemovedComponents: []
  m_SourcePrefab: {fileID: 100100000, guid: 4c0788ec63d31cd43a648f98de2db7eb, type: 3}
--- !u!1001 &6191533456236440205
PrefabInstance:
  m_ObjectHideFlags: 0
  serializedVersion: 2
  m_Modification:
    m_TransformParent: {fileID: 0}
    m_Modifications:
    - target: {fileID: 6191533454992155426, guid: e38e39a9aa6565a49a4f7ad7bfa90303, type: 3}
      propertyPath: m_Name
      value: EnemySpawner
      objectReference: {fileID: 0}
    - target: {fileID: 6191533454992155452, guid: e38e39a9aa6565a49a4f7ad7bfa90303, type: 3}
      propertyPath: m_RootOrder
      value: 8
      objectReference: {fileID: 0}
    - target: {fileID: 6191533454992155452, guid: e38e39a9aa6565a49a4f7ad7bfa90303, type: 3}
      propertyPath: m_LocalPosition.x
      value: 0
      objectReference: {fileID: 0}
    - target: {fileID: 6191533454992155452, guid: e38e39a9aa6565a49a4f7ad7bfa90303, type: 3}
      propertyPath: m_LocalPosition.y
      value: 0
      objectReference: {fileID: 0}
    - target: {fileID: 6191533454992155452, guid: e38e39a9aa6565a49a4f7ad7bfa90303, type: 3}
      propertyPath: m_LocalPosition.z
      value: 0
      objectReference: {fileID: 0}
    - target: {fileID: 6191533454992155452, guid: e38e39a9aa6565a49a4f7ad7bfa90303, type: 3}
      propertyPath: m_LocalRotation.w
      value: 1
      objectReference: {fileID: 0}
    - target: {fileID: 6191533454992155452, guid: e38e39a9aa6565a49a4f7ad7bfa90303, type: 3}
      propertyPath: m_LocalRotation.x
      value: 0
      objectReference: {fileID: 0}
    - target: {fileID: 6191533454992155452, guid: e38e39a9aa6565a49a4f7ad7bfa90303, type: 3}
      propertyPath: m_LocalRotation.y
      value: 0
      objectReference: {fileID: 0}
    - target: {fileID: 6191533454992155452, guid: e38e39a9aa6565a49a4f7ad7bfa90303, type: 3}
      propertyPath: m_LocalRotation.z
      value: 0
      objectReference: {fileID: 0}
    - target: {fileID: 6191533454992155452, guid: e38e39a9aa6565a49a4f7ad7bfa90303, type: 3}
      propertyPath: m_LocalEulerAnglesHint.x
      value: 0
      objectReference: {fileID: 0}
    - target: {fileID: 6191533454992155452, guid: e38e39a9aa6565a49a4f7ad7bfa90303, type: 3}
      propertyPath: m_LocalEulerAnglesHint.y
      value: 0
      objectReference: {fileID: 0}
    - target: {fileID: 6191533454992155452, guid: e38e39a9aa6565a49a4f7ad7bfa90303, type: 3}
      propertyPath: m_LocalEulerAnglesHint.z
      value: 0
      objectReference: {fileID: 0}
    - target: {fileID: 6191533454992155453, guid: e38e39a9aa6565a49a4f7ad7bfa90303, type: 3}
      propertyPath: m_Enabled
      value: 1
      objectReference: {fileID: 0}
    m_RemovedComponents: []
  m_SourcePrefab: {fileID: 100100000, guid: e38e39a9aa6565a49a4f7ad7bfa90303, type: 3}
--- !u!1001 &6348978493467649980
PrefabInstance:
  m_ObjectHideFlags: 0
  serializedVersion: 2
  m_Modification:
    m_TransformParent: {fileID: 0}
    m_Modifications:
    - target: {fileID: 6348978493063723968, guid: 1b5543c6f66f5f54081ebc5e5a0ac4ef, type: 3}
      propertyPath: m_RootOrder
      value: 12
      objectReference: {fileID: 0}
    - target: {fileID: 6348978493063723968, guid: 1b5543c6f66f5f54081ebc5e5a0ac4ef, type: 3}
      propertyPath: m_LocalPosition.x
      value: -0
      objectReference: {fileID: 0}
    - target: {fileID: 6348978493063723968, guid: 1b5543c6f66f5f54081ebc5e5a0ac4ef, type: 3}
      propertyPath: m_LocalPosition.y
      value: 10.54
      objectReference: {fileID: 0}
    - target: {fileID: 6348978493063723968, guid: 1b5543c6f66f5f54081ebc5e5a0ac4ef, type: 3}
      propertyPath: m_LocalPosition.z
      value: 5
      objectReference: {fileID: 0}
    - target: {fileID: 6348978493063723968, guid: 1b5543c6f66f5f54081ebc5e5a0ac4ef, type: 3}
      propertyPath: m_LocalRotation.w
      value: -0.7067024
      objectReference: {fileID: 0}
    - target: {fileID: 6348978493063723968, guid: 1b5543c6f66f5f54081ebc5e5a0ac4ef, type: 3}
      propertyPath: m_LocalRotation.x
      value: -0.70751095
      objectReference: {fileID: 0}
    - target: {fileID: 6348978493063723968, guid: 1b5543c6f66f5f54081ebc5e5a0ac4ef, type: 3}
      propertyPath: m_LocalRotation.y
      value: -0
      objectReference: {fileID: 0}
    - target: {fileID: 6348978493063723968, guid: 1b5543c6f66f5f54081ebc5e5a0ac4ef, type: 3}
      propertyPath: m_LocalRotation.z
      value: -0
      objectReference: {fileID: 0}
    - target: {fileID: 6348978493063723968, guid: 1b5543c6f66f5f54081ebc5e5a0ac4ef, type: 3}
      propertyPath: m_LocalEulerAnglesHint.x
      value: -270.063
      objectReference: {fileID: 0}
    - target: {fileID: 6348978493063723968, guid: 1b5543c6f66f5f54081ebc5e5a0ac4ef, type: 3}
      propertyPath: m_LocalEulerAnglesHint.y
      value: 0
      objectReference: {fileID: 0}
    - target: {fileID: 6348978493063723968, guid: 1b5543c6f66f5f54081ebc5e5a0ac4ef, type: 3}
      propertyPath: m_LocalEulerAnglesHint.z
      value: 0
      objectReference: {fileID: 0}
    - target: {fileID: 6348978493063723973, guid: 1b5543c6f66f5f54081ebc5e5a0ac4ef, type: 3}
      propertyPath: m_Name
      value: AsteroidBelt
      objectReference: {fileID: 0}
    m_RemovedComponents: []
  m_SourcePrefab: {fileID: 100100000, guid: 1b5543c6f66f5f54081ebc5e5a0ac4ef, type: 3}
--- !u!1001 &6643917584245708584
PrefabInstance:
  m_ObjectHideFlags: 0
  serializedVersion: 2
  m_Modification:
    m_TransformParent: {fileID: 0}
    m_Modifications:
    - target: {fileID: 6643917584925322225, guid: aaadc6b695cbfed44bb6bdab60402593, type: 3}
      propertyPath: m_Name
      value: Path_0
      objectReference: {fileID: 0}
    - target: {fileID: 6643917584925322226, guid: aaadc6b695cbfed44bb6bdab60402593, type: 3}
      propertyPath: m_RootOrder
      value: 6
      objectReference: {fileID: 0}
    - target: {fileID: 6643917584925322226, guid: aaadc6b695cbfed44bb6bdab60402593, type: 3}
      propertyPath: m_LocalPosition.x
      value: 0
      objectReference: {fileID: 0}
    - target: {fileID: 6643917584925322226, guid: aaadc6b695cbfed44bb6bdab60402593, type: 3}
      propertyPath: m_LocalPosition.y
      value: 0
      objectReference: {fileID: 0}
    - target: {fileID: 6643917584925322226, guid: aaadc6b695cbfed44bb6bdab60402593, type: 3}
      propertyPath: m_LocalPosition.z
      value: 0
      objectReference: {fileID: 0}
    - target: {fileID: 6643917584925322226, guid: aaadc6b695cbfed44bb6bdab60402593, type: 3}
      propertyPath: m_LocalRotation.w
      value: 1
      objectReference: {fileID: 0}
    - target: {fileID: 6643917584925322226, guid: aaadc6b695cbfed44bb6bdab60402593, type: 3}
      propertyPath: m_LocalRotation.x
      value: -0
      objectReference: {fileID: 0}
    - target: {fileID: 6643917584925322226, guid: aaadc6b695cbfed44bb6bdab60402593, type: 3}
      propertyPath: m_LocalRotation.y
      value: -0
      objectReference: {fileID: 0}
    - target: {fileID: 6643917584925322226, guid: aaadc6b695cbfed44bb6bdab60402593, type: 3}
      propertyPath: m_LocalRotation.z
      value: -0
      objectReference: {fileID: 0}
    - target: {fileID: 6643917584925322226, guid: aaadc6b695cbfed44bb6bdab60402593, type: 3}
      propertyPath: m_LocalEulerAnglesHint.x
      value: 0
      objectReference: {fileID: 0}
    - target: {fileID: 6643917584925322226, guid: aaadc6b695cbfed44bb6bdab60402593, type: 3}
      propertyPath: m_LocalEulerAnglesHint.y
      value: 0
      objectReference: {fileID: 0}
    - target: {fileID: 6643917584925322226, guid: aaadc6b695cbfed44bb6bdab60402593, type: 3}
      propertyPath: m_LocalEulerAnglesHint.z
      value: 0
      objectReference: {fileID: 0}
    m_RemovedComponents: []
  m_SourcePrefab: {fileID: 100100000, guid: aaadc6b695cbfed44bb6bdab60402593, type: 3}
--- !u!1001 &9204166147516103109
PrefabInstance:
  m_ObjectHideFlags: 0
  serializedVersion: 2
  m_Modification:
    m_TransformParent: {fileID: 0}
    m_Modifications:
    - target: {fileID: 9204166146127761433, guid: 5fef1d50aef6e3c43a0fbe0ccbc6d98f, type: 3}
      propertyPath: m_RootOrder
      value: 11
      objectReference: {fileID: 0}
    - target: {fileID: 9204166146127761433, guid: 5fef1d50aef6e3c43a0fbe0ccbc6d98f, type: 3}
      propertyPath: m_LocalPosition.x
      value: -0
      objectReference: {fileID: 0}
    - target: {fileID: 9204166146127761433, guid: 5fef1d50aef6e3c43a0fbe0ccbc6d98f, type: 3}
      propertyPath: m_LocalPosition.y
      value: 10.54
      objectReference: {fileID: 0}
    - target: {fileID: 9204166146127761433, guid: 5fef1d50aef6e3c43a0fbe0ccbc6d98f, type: 3}
      propertyPath: m_LocalPosition.z
      value: 5
      objectReference: {fileID: 0}
    - target: {fileID: 9204166146127761433, guid: 5fef1d50aef6e3c43a0fbe0ccbc6d98f, type: 3}
      propertyPath: m_LocalRotation.w
      value: -0.7067024
      objectReference: {fileID: 0}
    - target: {fileID: 9204166146127761433, guid: 5fef1d50aef6e3c43a0fbe0ccbc6d98f, type: 3}
      propertyPath: m_LocalRotation.x
      value: -0.70751095
      objectReference: {fileID: 0}
    - target: {fileID: 9204166146127761433, guid: 5fef1d50aef6e3c43a0fbe0ccbc6d98f, type: 3}
      propertyPath: m_LocalRotation.y
      value: -0
      objectReference: {fileID: 0}
    - target: {fileID: 9204166146127761433, guid: 5fef1d50aef6e3c43a0fbe0ccbc6d98f, type: 3}
      propertyPath: m_LocalRotation.z
      value: -0
      objectReference: {fileID: 0}
    - target: {fileID: 9204166146127761433, guid: 5fef1d50aef6e3c43a0fbe0ccbc6d98f, type: 3}
      propertyPath: m_LocalEulerAnglesHint.x
      value: -270.063
      objectReference: {fileID: 0}
    - target: {fileID: 9204166146127761433, guid: 5fef1d50aef6e3c43a0fbe0ccbc6d98f, type: 3}
      propertyPath: m_LocalEulerAnglesHint.y
      value: 0
      objectReference: {fileID: 0}
    - target: {fileID: 9204166146127761433, guid: 5fef1d50aef6e3c43a0fbe0ccbc6d98f, type: 3}
      propertyPath: m_LocalEulerAnglesHint.z
      value: 0
      objectReference: {fileID: 0}
    - target: {fileID: 9204166146127761436, guid: 5fef1d50aef6e3c43a0fbe0ccbc6d98f, type: 3}
      propertyPath: m_Name
      value: Starfield
      objectReference: {fileID: 0}
    m_RemovedComponents: []
  m_SourcePrefab: {fileID: 100100000, guid: 5fef1d50aef6e3c43a0fbe0ccbc6d98f, type: 3}
